{
  "version": 2,
  "name": "yourtube",
  "builds": [
      { "src": "**/*.js", "use": "@now/node" }
  ],
  "routes": [
    {
      "src": "/.*",
      "headers": {
          "Access-Control-Allow-Origin": "*",
          "Access-Control-Allow-Methods": "GET, POST, PUT, DELETE, OPTIONS",
          "Access-Control-Allow-Headers": "X-Requested-With, Content-Type, Accept"
      },
      "dest": "/server.js"
    }
  ]
}

